rule=> initialization	State=> 1	StateCounter=>           0	
rule=> initialization	State=> 1	StateCounter=>           1	
rule=> initialization	State=> 1	StateCounter=>           2	
state going to doub
StateCounter(0)=>           0	
i=>          0	rule=> double	output	State=> 2	StateCounter=>           0	
status from alu is ready		
i=>          0	rule=> double reg store	State=> 2	StateCounter=>           0	
	C0=> 00000000000000000000000000000000000000000000000000000000001	
	C1=> 025ffecac5ea67090d45b1743f24382fd090e6786cc290b5df9bd34fa20	
StateCounter(1)=>           1	
i=>          0	rule=> double	output	State=> 2	StateCounter=>           1	
status from alu is ready		
i=>          0	rule=> double reg store	State=> 2	StateCounter=>           1	
	C0=> 1ef050505ef84827eeb78d4cadcb2c18825645369c303e7f2c8b55310c7	
	C1=> 00000000000000000000000000000000000000000000000000000000000	
i=>          0	rule=> double	output	State=> 2	StateCounter=>           2	
status from alu is ready		
i=>          0	rule=> double reg store	State=> 2	StateCounter=>           2	
	C0=> 1c7c4df2ba661089c5738a0108f70f6016e4b78825dcec7d20f51dcf4be	
	C1=> 13d0d00e00ae21b27760151abfa2f1964d27267096b363f397c2021a134	
i=>          0	rule=> double	output	State=> 2	StateCounter=>           3	
status from alu is ready		
i=>          0	rule=> double reg store	State=> 2	StateCounter=>           3	
	C0=> 1ef050505ef84827eeb78d4cadcb2c18825645369c303e7f2c8b55310c7	
	C1=> 0871bd279efdf737007a2a3a77738f9f7c085cd285b4c3662d8d0e74628	
State going to Doub again
StateCounter(0)=>           0	
i=>          1	rule=> double	output	State=> 2	StateCounter=>           0	
status from alu is ready		
i=>          1	rule=> double reg store	State=> 2	StateCounter=>           0	
	C0=> 00000000000000000000000000000000000000000000000000000000001	
	C1=> 07619989b04ff1f194b233c8af90141c184a58c1db6e39d4ed7c6768ea4	
StateCounter(1)=>           1	
i=>          1	rule=> double	output	State=> 2	StateCounter=>           1	
status from alu is ready		
i=>          1	rule=> double reg store	State=> 2	StateCounter=>           1	
	C0=> 1ef050505ef84827eeb78d4cadcb2c18825645369c303e7f2c8b55310c7	
	C1=> 00000000000000000000000000000000000000000000000000000000000	
i=>          1	rule=> double	output	State=> 2	StateCounter=>           2	
status from alu is ready		
i=>          1	rule=> double reg store	State=> 2	StateCounter=>           2	
	C0=> 1635d4cdc56508596b07308052da8a68a4b3748a747614b48c8189f1eca	
	C1=> 05e504c3c5cb29eb1c67259aed787bfee99452fae2c577471b438bebfff	
i=>          1	rule=> double	output	State=> 2	StateCounter=>           3	
status from alu is ready		
i=>          1	rule=> double reg store	State=> 2	StateCounter=>           3	
	C0=> 1ef050505ef84827eeb78d4cadcb2c18825645369c303e7f2c8b55310c7	
	C1=> 0871bd279efdf737007a2a3a77738f9f7c085cd285b4c3662d8d0e74628	
State going to Doub again
StateCounter(0)=>           0	
i=>          2	rule=> double	output	State=> 2	StateCounter=>           0	
status from alu is ready		
i=>          2	rule=> double reg store	State=> 2	StateCounter=>           0	
	C0=> 00000000000000000000000000000000000000000000000000000000001	
	C1=> 1a324187fbd008fbdb3b4274f75f020984bcf4ea525a6871ed8a74eb019	
StateCounter(1)=>           1	
i=>          2	rule=> double	output	State=> 2	StateCounter=>           1	
status from alu is ready		
i=>          2	rule=> double reg store	State=> 2	StateCounter=>           1	
	C0=> 1ef050505ef84827eeb78d4cadcb2c18825645369c303e7f2c8b55310c7	
	C1=> 00000000000000000000000000000000000000000000000000000000000	
i=>          2	rule=> double	output	State=> 2	StateCounter=>           2	
status from alu is ready		
i=>          2	rule=> double reg store	State=> 2	StateCounter=>           2	
	C0=> 18e1d29fc49ecad53ac76a010e77e0263dbb776444826e3da1937f9d993	
	C1=> 1d04d65c0155e33e26a04f9be30f9bd8d42f259ea647197abad0f47666d	
i=>          2	rule=> double	output	State=> 2	StateCounter=>           3	
status from alu is ready		
i=>          2	rule=> double reg store	State=> 2	StateCounter=>           3	
	C0=> 1ef050505ef84827eeb78d4cadcb2c18825645369c303e7f2c8b55310c7	
	C1=> 0871bd279efdf737007a2a3a77738f9f7c085cd285b4c3662d8d0e74628	
State going to Doub again
StateCounter(0)=>           0	
i=>          3	rule=> double	output	State=> 2	StateCounter=>           0	
status from alu is ready		
i=>          3	rule=> double reg store	State=> 2	StateCounter=>           0	
	C0=> 00000000000000000000000000000000000000000000000000000000001	
	C1=> 00baf94f291ab97dba3d810eea0a5fa94187e9e2b4ed17040ae8a29d29f	
StateCounter(1)=>           1	
i=>          3	rule=> double	output	State=> 2	StateCounter=>           1	
status from alu is ready		
i=>          3	rule=> double reg store	State=> 2	StateCounter=>           1	
	C0=> 1ef050505ef84827eeb78d4cadcb2c18825645369c303e7f2c8b55310c7	
	C1=> 00000000000000000000000000000000000000000000000000000000000	
i=>          3	rule=> double	output	State=> 2	StateCounter=>           2	
status from alu is ready		
i=>          3	rule=> double reg store	State=> 2	StateCounter=>           2	
	C0=> 05d28976545954411e0b5c5e010b93bb1cd7790bbde4455bd8eccbaf11a	
	C1=> 18d65f2a550cb77f38ab13c5e2040863c8f85c951ba35c21623c3fd9776	
i=>          3	rule=> double	output	State=> 2	StateCounter=>           3	
status from alu is ready		
i=>          3	rule=> double reg store	State=> 2	StateCounter=>           3	
	C0=> 1ef050505ef84827eeb78d4cadcb2c18825645369c303e7f2c8b55310c7	
	C1=> 0871bd279efdf737007a2a3a77738f9f7c085cd285b4c3662d8d0e74628	
State going to Doub again
StateCounter(0)=>           0	
i=>          4	rule=> double	output	State=> 2	StateCounter=>           0	
status from alu is ready		
i=>          4	rule=> double reg store	State=> 2	StateCounter=>           0	
	C0=> 00000000000000000000000000000000000000000000000000000000001	
	C1=> 139e8a2c785a34e2bcbaa12320abdd0b23a96bb107d9cdbf82586a49353	
StateCounter(1)=>           1	
i=>          4	rule=> double	output	State=> 2	StateCounter=>           1	
status from alu is ready		
i=>          4	rule=> double reg store	State=> 2	StateCounter=>           1	
	C0=> 1ef050505ef84827eeb78d4cadcb2c18825645369c303e7f2c8b55310c7	
	C1=> 00000000000000000000000000000000000000000000000000000000000	
i=>          4	rule=> double	output	State=> 2	StateCounter=>           2	
status from alu is ready		
i=>          4	rule=> double reg store	State=> 2	StateCounter=>           2	
	C0=> 165644b6fbce7d9e8d4735f737a32ab745a30289adebe0e0c077578fea8	
	C1=> 0e801b9caec2cae1b5ec2632d5a722d48d5b5e1cb648bcc1a24b68569df	
i=>          4	rule=> double	output	State=> 2	StateCounter=>           3	
status from alu is ready		
i=>          4	rule=> double reg store	State=> 2	StateCounter=>           3	
	C0=> 1ef050505ef84827eeb78d4cadcb2c18825645369c303e7f2c8b55310c7	
	C1=> 0871bd279efdf737007a2a3a77738f9f7c085cd285b4c3662d8d0e74628	
State going to Ad
i=>          4	rule=> addition output	State=> 3	StateCounter=>           0	
status from alu is ready		
i=>          4	rule=> add reg store	State=> 3	StateCounter=>           0	
	C0=> 04600457c77754a36954cb3d2e4d40494a22e9598f408973162eb66aba5	
	C1=> 14780ad54f7404781c8bd52510bc94dc3962b313e02a6df7c3152bc789e	
i=>          4	rule=> addition output	State=> 3	StateCounter=>           1	
status from alu is ready		
i=>          4	rule=> add reg store	State=> 3	StateCounter=>           1	
	C0=> 032b5bf80155fa824632888db83a170918c8383c2222e22c4223f0ff845	
	C1=> 00582352d0b566514c8880d0e5ecf3041ec011a04bc741d688c45433e31	
i=>          4	rule=> addition output	State=> 3	StateCounter=>           2	
status from alu is ready		
i=>          4	rule=> add reg store	State=> 3	StateCounter=>           2	
	C0=> 00000000000000000000000000000000000000000000000000000000000	
	C1=> 032b5bf80155fa824632888db83a170918c8383c2222e22c4223f0ff845	
i=>          4	rule=> addition output	State=> 3	StateCounter=>           3	
status from alu is ready		
i=>          4	rule=> add reg store	State=> 3	StateCounter=>           3	
	C0=> 00000000000000000000000000000000000000000000000000000000000	
	C1=> 032b5bf80155fa824632888db83a170918c8383c2222e22c4223f0ff845	
i=>          4	rule=> addition output	State=> 3	StateCounter=>           4	
status from alu is ready		
i=>          4	rule=> add reg store	State=> 3	StateCounter=>           4	
	C0=> 04600457c77754a36954cb3d2e4d40494a22e9598f408973162eb66aba5	
	C1=> 00000000000000000000000000000000000000000000000000000000000	
i=>          4	rule=> addition output	State=> 3	StateCounter=>           5	
status from alu is ready		
i=>          4	rule=> add reg store	State=> 3	StateCounter=>           5	
	C0=> 00000000000000000000000000000000000000000000000000000000000	
	C1=> 00000000000000000000000000000000000000000000000000000000000	
i=>          4	rule=> addition output	State=> 3	StateCounter=>           6	
status from alu is ready		
i=>          4	rule=> add reg store	State=> 3	StateCounter=>           6	
	C0=> 00000000000000000000000000000000000000000000000000000000000	
	C1=> 1006a08a41903350678e58528bebf8a0beff867a7ca36716f7e01f81052	
i=>          4	rule=> addition output	State=> 3	StateCounter=>           7	
status from alu is ready		
i=>          4	rule=> add reg store	State=> 3	StateCounter=>           7	
	C0=> 00000000000000000000000000000000000000000000000000000000000	
	C1=> 00000000000000000000000000000000000000000000000000000000000	
StateCounter(0)=>           0	
i=>          5	rule=> double	output	State=> 2	StateCounter=>           0	
status from alu is ready		
i=>          5	rule=> double reg store	State=> 2	StateCounter=>           0	
	C0=> 00000000000000000000000000000000000000000000000000000000000	
	C1=> 00000000000000000000000000000000000000000000000000000000000	
StateCounter(1)=>           1	
i=>          5	rule=> double	output	State=> 2	StateCounter=>           1	
status from alu is ready		
i=>          5	rule=> double reg store	State=> 2	StateCounter=>           1	
	C0=> 1ef050505ef84827eeb78d4cadcb2c18825645369c303e7f2c8b55310c7	
	C1=> 00000000000000000000000000000000000000000000000000000000000	
i=>          5	rule=> double	output	State=> 2	StateCounter=>           2	
status from alu is ready		
i=>          5	rule=> double reg store	State=> 2	StateCounter=>           2	
	C0=> 001eae08c993638b1251464ab51a2c35cdbfdc3013c9839222db822c369	
	C1=> 001eae08c993638b1251464ab51a2c35cdbfdc3013c9839222db822c369	
i=>          5	rule=> double	output	State=> 2	StateCounter=>           3	
status from alu is ready		
i=>          5	rule=> double reg store	State=> 2	StateCounter=>           3	
	C0=> 00000000000000000000000000000000000000000000000000000000000	
	C1=> 0871bd279efdf737007a2a3a77738f9f7c085cd285b4c3662d8d0e74628	
State going to Doub again
StateCounter(0)=>           0	
i=>          6	rule=> double	output	State=> 2	StateCounter=>           0	
status from alu is ready		
i=>          6	rule=> double reg store	State=> 2	StateCounter=>           0	
	C0=> 00000000000000000000000000000000000000000000000000000000000	
	C1=> 001eae08c993638b1251464ab51a2c35cdbfdc3013c9839222db822c369	
StateCounter(1)=>           1	
i=>          6	rule=> double	output	State=> 2	StateCounter=>           1	
status from alu is ready		
i=>          6	rule=> double reg store	State=> 2	StateCounter=>           1	
	C0=> 1ef050505ef84827eeb78d4cadcb2c18825645369c303e7f2c8b55310c7	
	C1=> 00000000000000000000000000000000000000000000000000000000000	
i=>          6	rule=> double	output	State=> 2	StateCounter=>           2	
status from alu is ready		
i=>          6	rule=> double reg store	State=> 2	StateCounter=>           2	
	C0=> 18ec21b708f3fd3a4fa7f3ee61925f2220bcd9d22d733c50128e85c6ae6	
	C1=> 18f28fbfc1609eb15df6b5a4d4887317ed0305e23ebabfc2305507ea98f	
i=>          6	rule=> double	output	State=> 2	StateCounter=>           3	
status from alu is ready		
i=>          6	rule=> double reg store	State=> 2	StateCounter=>           3	
	C0=> 00000000000000000000000000000000000000000000000000000000000	
	C1=> 0871bd279efdf737007a2a3a77738f9f7c085cd285b4c3662d8d0e74628	
State going to Doub again
StateCounter(0)=>           0	
i=>          7	rule=> double	output	State=> 2	StateCounter=>           0	
status from alu is ready		
i=>          7	rule=> double reg store	State=> 2	StateCounter=>           0	
	C0=> 00000000000000000000000000000000000000000000000000000000000	
	C1=> 18f28fbfc1609eb15df6b5a4d4887317ed0305e23ebabfc2305507ea98f	
StateCounter(1)=>           1	
i=>          7	rule=> double	output	State=> 2	StateCounter=>           1	
status from alu is ready		
i=>          7	rule=> double reg store	State=> 2	StateCounter=>           1	
	C0=> 1ef050505ef84827eeb78d4cadcb2c18825645369c303e7f2c8b55310c7	
	C1=> 00000000000000000000000000000000000000000000000000000000000	
i=>          7	rule=> double	output	State=> 2	StateCounter=>           2	
status from alu is ready		
i=>          7	rule=> double reg store	State=> 2	StateCounter=>           2	
	C0=> 0a15ca5b78835de8d8348adbb230d6ddca0de2a63fd72911ea8135e4a98	
	C1=> 12e745e4b9e3c35985c23f7f66b8a5ca270ee744016d96d3dad4320e317	
i=>          7	rule=> double	output	State=> 2	StateCounter=>           3	
status from alu is ready		
i=>          7	rule=> double reg store	State=> 2	StateCounter=>           3	
	C0=> 00000000000000000000000000000000000000000000000000000000000	
	C1=> 0871bd279efdf737007a2a3a77738f9f7c085cd285b4c3662d8d0e74628	
State going to Doub again
StateCounter(0)=>           0	
i=>          8	rule=> double	output	State=> 2	StateCounter=>           0	
status from alu is ready		
i=>          8	rule=> double reg store	State=> 2	StateCounter=>           0	
	C0=> 00000000000000000000000000000000000000000000000000000000000	
	C1=> 12e745e4b9e3c35985c23f7f66b8a5ca270ee744016d96d3dad4320e317	
StateCounter(1)=>           1	
i=>          8	rule=> double	output	State=> 2	StateCounter=>           1	
status from alu is ready		
i=>          8	rule=> double reg store	State=> 2	StateCounter=>           1	
	C0=> 1ef050505ef84827eeb78d4cadcb2c18825645369c303e7f2c8b55310c7	
	C1=> 00000000000000000000000000000000000000000000000000000000000	
i=>          8	rule=> double	output	State=> 2	StateCounter=>           2	
status from alu is ready		
i=>          8	rule=> double reg store	State=> 2	StateCounter=>           2	
	C0=> 03ef69529811415f754d9850a497981435479e7898c78b809272cef953d	
	C1=> 11082cb621f28206f08fa72fc22f3dde1249793c99aa1d5348a6fcf762a	
i=>          8	rule=> double	output	State=> 2	StateCounter=>           3	
status from alu is ready		
i=>          8	rule=> double reg store	State=> 2	StateCounter=>           3	
	C0=> 00000000000000000000000000000000000000000000000000000000000	
	C1=> 0871bd279efdf737007a2a3a77738f9f7c085cd285b4c3662d8d0e74628	
State going to Doub again
StateCounter(0)=>           0	
i=>          9	rule=> double	output	State=> 2	StateCounter=>           0	
status from alu is ready		
i=>          9	rule=> double reg store	State=> 2	StateCounter=>           0	
	C0=> 00000000000000000000000000000000000000000000000000000000000	
	C1=> 11082cb621f28206f08fa72fc22f3dde1249793c99aa1d5348a6fcf762a	
StateCounter(1)=>           1	
i=>          9	rule=> double	output	State=> 2	StateCounter=>           1	
status from alu is ready		
i=>          9	rule=> double reg store	State=> 2	StateCounter=>           1	
	C0=> 1ef050505ef84827eeb78d4cadcb2c18825645369c303e7f2c8b55310c7	
	C1=> 00000000000000000000000000000000000000000000000000000000000	
i=>          9	rule=> double	output	State=> 2	StateCounter=>           2	
status from alu is ready		
i=>          9	rule=> double reg store	State=> 2	StateCounter=>           2	
	C0=> 0834207b17d7b154e12e015fc6403bf877232eb442af434ffc62ac5023b	
	C1=> 193c0ccd3625335211a1a670046f0626656a5788db055e1cb4c450a7411	
i=>          9	rule=> double	output	State=> 2	StateCounter=>           3	
status from alu is ready		
i=>          9	rule=> double reg store	State=> 2	StateCounter=>           3	
	C0=> 00000000000000000000000000000000000000000000000000000000000	
	C1=> 0871bd279efdf737007a2a3a77738f9f7c085cd285b4c3662d8d0e74628	
State going to Doub again
StateCounter(0)=>           0	
i=>         10	rule=> double	output	State=> 2	StateCounter=>           0	
status from alu is ready		
i=>         10	rule=> double reg store	State=> 2	StateCounter=>           0	
	C0=> 00000000000000000000000000000000000000000000000000000000000	
	C1=> 193c0ccd3625335211a1a670046f0626656a5788db055e1cb4c450a7411	
StateCounter(1)=>           1	
i=>         10	rule=> double	output	State=> 2	StateCounter=>           1	
status from alu is ready		
i=>         10	rule=> double reg store	State=> 2	StateCounter=>           1	
	C0=> 1ef050505ef84827eeb78d4cadcb2c18825645369c303e7f2c8b55310c7	
	C1=> 00000000000000000000000000000000000000000000000000000000000	
i=>         10	rule=> double	output	State=> 2	StateCounter=>           2	
status from alu is ready		
i=>         10	rule=> double reg store	State=> 2	StateCounter=>           2	
	C0=> 0c9e669053767d5cb5bb57ed830f181c3108b7d58ca5c9e72e6cc56d04a	
	C1=> 15a26a5d65534e0ea41af19d87601e3a5462e05d57a097fb9aa895ca45b	
i=>         10	rule=> double	output	State=> 2	StateCounter=>           3	
status from alu is ready		
i=>         10	rule=> double reg store	State=> 2	StateCounter=>           3	
	C0=> 00000000000000000000000000000000000000000000000000000000000	
	C1=> 0871bd279efdf737007a2a3a77738f9f7c085cd285b4c3662d8d0e74628	
State going to Doub again
StateCounter(0)=>           0	
i=>         11	rule=> double	output	State=> 2	StateCounter=>           0	
status from alu is ready		
i=>         11	rule=> double reg store	State=> 2	StateCounter=>           0	
	C0=> 00000000000000000000000000000000000000000000000000000000000	
	C1=> 15a26a5d65534e0ea41af19d87601e3a5462e05d57a097fb9aa895ca45b	
StateCounter(1)=>           1	
i=>         11	rule=> double	output	State=> 2	StateCounter=>           1	
status from alu is ready		
i=>         11	rule=> double reg store	State=> 2	StateCounter=>           1	
	C0=> 1ef050505ef84827eeb78d4cadcb2c18825645369c303e7f2c8b55310c7	
	C1=> 00000000000000000000000000000000000000000000000000000000000	
i=>         11	rule=> double	output	State=> 2	StateCounter=>           2	
status from alu is ready		
i=>         11	rule=> double reg store	State=> 2	StateCounter=>           2	
	C0=> 1e7433b22a7f9935f35d911dd09a91315a377e138b5f0c21d3366aea6d8	
	C1=> 0bd659ef4f2cd73b5747608057fa8f0b0e559e4edcff9bda499eff20283	
i=>         11	rule=> double	output	State=> 2	StateCounter=>           3	
status from alu is ready		
i=>         11	rule=> double reg store	State=> 2	StateCounter=>           3	
	C0=> 00000000000000000000000000000000000000000000000000000000000	
	C1=> 0871bd279efdf737007a2a3a77738f9f7c085cd285b4c3662d8d0e74628	
State going to Doub again
StateCounter(0)=>           0	
i=>         12	rule=> double	output	State=> 2	StateCounter=>           0	
status from alu is ready		
i=>         12	rule=> double reg store	State=> 2	StateCounter=>           0	
	C0=> 00000000000000000000000000000000000000000000000000000000000	
	C1=> 0bd659ef4f2cd73b5747608057fa8f0b0e559e4edcff9bda499eff20283	
StateCounter(1)=>           1	
i=>         12	rule=> double	output	State=> 2	StateCounter=>           1	
status from alu is ready		
i=>         12	rule=> double reg store	State=> 2	StateCounter=>           1	
	C0=> 1ef050505ef84827eeb78d4cadcb2c18825645369c303e7f2c8b55310c7	
	C1=> 00000000000000000000000000000000000000000000000000000000000	
i=>         12	rule=> double	output	State=> 2	StateCounter=>           2	
status from alu is ready		
i=>         12	rule=> double reg store	State=> 2	StateCounter=>           2	
	C0=> 0d59e615db62c7d386ceec17260073b8649792b7ad0b8340fd89b08ca25	
	C1=> 068fbffa944e10e8d1898c9771fafcb36ac20cf971f4189ab4174fac8a6	
i=>         12	rule=> double	output	State=> 2	StateCounter=>           3	
status from alu is ready		
i=>         12	rule=> double reg store	State=> 2	StateCounter=>           3	
	C0=> 00000000000000000000000000000000000000000000000000000000000	
	C1=> 0871bd279efdf737007a2a3a77738f9f7c085cd285b4c3662d8d0e74628	
State going to Ad
i=>         12	rule=> addition output	State=> 3	StateCounter=>           0	
status from alu is ready		
i=>         12	rule=> add reg store	State=> 3	StateCounter=>           0	
	C0=> 00000000000000000000000000000000000000000000000000000000000	
	C1=> 1006a08a41903350678e58528bebf8a0beff867a7ca36716f7e01f81052	
i=>         12	rule=> addition output	State=> 3	StateCounter=>           1	
status from alu is ready		
i=>         12	rule=> add reg store	State=> 3	StateCounter=>           1	
	C0=> 12f8b5b6bf6776415b36c79d5c8ee95e02ef7a038b84dce713992c35d93	
	C1=> 1984697a540b309b35e96565a505d334e37e017a25dddb46cf22af03a9e	
i=>         12	rule=> addition output	State=> 3	StateCounter=>           2	
status from alu is ready		
i=>         12	rule=> add reg store	State=> 3	StateCounter=>           2	
	C0=> 00000000000000000000000000000000000000000000000000000000000	
	C1=> 12f8b5b6bf6776415b36c79d5c8ee95e02ef7a038b84dce713992c35d93	
i=>         12	rule=> addition output	State=> 3	StateCounter=>           3	
status from alu is ready		
i=>         12	rule=> add reg store	State=> 3	StateCounter=>           3	
	C0=> 00000000000000000000000000000000000000000000000000000000000	
	C1=> 12f8b5b6bf6776415b36c79d5c8ee95e02ef7a038b84dce713992c35d93	
i=>         12	rule=> addition output	State=> 3	StateCounter=>           4	
status from alu is ready		
i=>         12	rule=> add reg store	State=> 3	StateCounter=>           4	
	C0=> 00000000000000000000000000000000000000000000000000000000000	
	C1=> 00000000000000000000000000000000000000000000000000000000000	
i=>         12	rule=> addition output	State=> 3	StateCounter=>           5	
status from alu is ready		
i=>         12	rule=> add reg store	State=> 3	StateCounter=>           5	
	C0=> 00000000000000000000000000000000000000000000000000000000000	
	C1=> 00000000000000000000000000000000000000000000000000000000000	
i=>         12	rule=> addition output	State=> 3	StateCounter=>           6	
status from alu is ready		
i=>         12	rule=> add reg store	State=> 3	StateCounter=>           6	
	C0=> 00000000000000000000000000000000000000000000000000000000000	
	C1=> 1006a08a41903350678e58528bebf8a0beff867a7ca36716f7e01f81052	
i=>         12	rule=> addition output	State=> 3	StateCounter=>           7	
status from alu is ready		
i=>         12	rule=> add reg store	State=> 3	StateCounter=>           7	
	C0=> 00000000000000000000000000000000000000000000000000000000000	
	C1=> 00000000000000000000000000000000000000000000000000000000000	
StateCounter(0)=>           0	
i=>         13	rule=> double	output	State=> 2	StateCounter=>           0	
status from alu is ready		
i=>         13	rule=> double reg store	State=> 2	StateCounter=>           0	
	C0=> 00000000000000000000000000000000000000000000000000000000000	
	C1=> 00000000000000000000000000000000000000000000000000000000000	
StateCounter(1)=>           1	
i=>         13	rule=> double	output	State=> 2	StateCounter=>           1	
status from alu is ready		
i=>         13	rule=> double reg store	State=> 2	StateCounter=>           1	
	C0=> 1ef050505ef84827eeb78d4cadcb2c18825645369c303e7f2c8b55310c7	
	C1=> 00000000000000000000000000000000000000000000000000000000000	
i=>         13	rule=> double	output	State=> 2	StateCounter=>           2	
status from alu is ready		
i=>         13	rule=> double reg store	State=> 2	StateCounter=>           2	
	C0=> 001eae08c993638b1251464ab51a2c35cdbfdc3013c9839222db822c369	
	C1=> 001eae08c993638b1251464ab51a2c35cdbfdc3013c9839222db822c369	
i=>         13	rule=> double	output	State=> 2	StateCounter=>           3	
status from alu is ready		
i=>         13	rule=> double reg store	State=> 2	StateCounter=>           3	
	C0=> 00000000000000000000000000000000000000000000000000000000000	
	C1=> 0871bd279efdf737007a2a3a77738f9f7c085cd285b4c3662d8d0e74628	
State going to Doub again
StateCounter(0)=>           0	
i=>         14	rule=> double	output	State=> 2	StateCounter=>           0	
status from alu is ready		
i=>         14	rule=> double reg store	State=> 2	StateCounter=>           0	
	C0=> 00000000000000000000000000000000000000000000000000000000000	
	C1=> 001eae08c993638b1251464ab51a2c35cdbfdc3013c9839222db822c369	
StateCounter(1)=>           1	
i=>         14	rule=> double	output	State=> 2	StateCounter=>           1	
status from alu is ready		
i=>         14	rule=> double reg store	State=> 2	StateCounter=>           1	
	C0=> 1ef050505ef84827eeb78d4cadcb2c18825645369c303e7f2c8b55310c7	
	C1=> 00000000000000000000000000000000000000000000000000000000000	
i=>         14	rule=> double	output	State=> 2	StateCounter=>           2	
status from alu is ready		
i=>         14	rule=> double reg store	State=> 2	StateCounter=>           2	
	C0=> 18ec21b708f3fd3a4fa7f3ee61925f2220bcd9d22d733c50128e85c6ae6	
	C1=> 18f28fbfc1609eb15df6b5a4d4887317ed0305e23ebabfc2305507ea98f	
i=>         14	rule=> double	output	State=> 2	StateCounter=>           3	
status from alu is ready		
i=>         14	rule=> double reg store	State=> 2	StateCounter=>           3	
	C0=> 00000000000000000000000000000000000000000000000000000000000	
	C1=> 0871bd279efdf737007a2a3a77738f9f7c085cd285b4c3662d8d0e74628	
State going to Doub again
StateCounter(0)=>           0	
i=>         15	rule=> double	output	State=> 2	StateCounter=>           0	
status from alu is ready		
i=>         15	rule=> double reg store	State=> 2	StateCounter=>           0	
	C0=> 00000000000000000000000000000000000000000000000000000000000	
	C1=> 18f28fbfc1609eb15df6b5a4d4887317ed0305e23ebabfc2305507ea98f	
StateCounter(1)=>           1	
i=>         15	rule=> double	output	State=> 2	StateCounter=>           1	
status from alu is ready		
i=>         15	rule=> double reg store	State=> 2	StateCounter=>           1	
	C0=> 1ef050505ef84827eeb78d4cadcb2c18825645369c303e7f2c8b55310c7	
	C1=> 00000000000000000000000000000000000000000000000000000000000	
i=>         15	rule=> double	output	State=> 2	StateCounter=>           2	
status from alu is ready		
i=>         15	rule=> double reg store	State=> 2	StateCounter=>           2	
	C0=> 0a15ca5b78835de8d8348adbb230d6ddca0de2a63fd72911ea8135e4a98	
	C1=> 12e745e4b9e3c35985c23f7f66b8a5ca270ee744016d96d3dad4320e317	
i=>         15	rule=> double	output	State=> 2	StateCounter=>           3	
status from alu is ready		
i=>         15	rule=> double reg store	State=> 2	StateCounter=>           3	
	C0=> 00000000000000000000000000000000000000000000000000000000000	
	C1=> 0871bd279efdf737007a2a3a77738f9f7c085cd285b4c3662d8d0e74628	
State going to Doub again
StateCounter(0)=>           0	
i=>         16	rule=> double	output	State=> 2	StateCounter=>           0	
status from alu is ready		
i=>         16	rule=> double reg store	State=> 2	StateCounter=>           0	
	C0=> 00000000000000000000000000000000000000000000000000000000000	
	C1=> 12e745e4b9e3c35985c23f7f66b8a5ca270ee744016d96d3dad4320e317	
StateCounter(1)=>           1	
i=>         16	rule=> double	output	State=> 2	StateCounter=>           1	
status from alu is ready		
i=>         16	rule=> double reg store	State=> 2	StateCounter=>           1	
	C0=> 1ef050505ef84827eeb78d4cadcb2c18825645369c303e7f2c8b55310c7	
	C1=> 00000000000000000000000000000000000000000000000000000000000	
i=>         16	rule=> double	output	State=> 2	StateCounter=>           2	
status from alu is ready		
i=>         16	rule=> double reg store	State=> 2	StateCounter=>           2	
	C0=> 03ef69529811415f754d9850a497981435479e7898c78b809272cef953d	
	C1=> 11082cb621f28206f08fa72fc22f3dde1249793c99aa1d5348a6fcf762a	
i=>         16	rule=> double	output	State=> 2	StateCounter=>           3	
status from alu is ready		
i=>         16	rule=> double reg store	State=> 2	StateCounter=>           3	
	C0=> 00000000000000000000000000000000000000000000000000000000000	
	C1=> 0871bd279efdf737007a2a3a77738f9f7c085cd285b4c3662d8d0e74628	
State going to Doub again
StateCounter(0)=>           0	
i=>         17	rule=> double	output	State=> 2	StateCounter=>           0	
status from alu is ready		
i=>         17	rule=> double reg store	State=> 2	StateCounter=>           0	
	C0=> 00000000000000000000000000000000000000000000000000000000000	
	C1=> 11082cb621f28206f08fa72fc22f3dde1249793c99aa1d5348a6fcf762a	
StateCounter(1)=>           1	
i=>         17	rule=> double	output	State=> 2	StateCounter=>           1	
status from alu is ready		
i=>         17	rule=> double reg store	State=> 2	StateCounter=>           1	
	C0=> 1ef050505ef84827eeb78d4cadcb2c18825645369c303e7f2c8b55310c7	
	C1=> 00000000000000000000000000000000000000000000000000000000000	
i=>         17	rule=> double	output	State=> 2	StateCounter=>           2	
status from alu is ready		
i=>         17	rule=> double reg store	State=> 2	StateCounter=>           2	
	C0=> 0834207b17d7b154e12e015fc6403bf877232eb442af434ffc62ac5023b	
	C1=> 193c0ccd3625335211a1a670046f0626656a5788db055e1cb4c450a7411	
i=>         17	rule=> double	output	State=> 2	StateCounter=>           3	
status from alu is ready		
i=>         17	rule=> double reg store	State=> 2	StateCounter=>           3	
	C0=> 00000000000000000000000000000000000000000000000000000000000	
	C1=> 0871bd279efdf737007a2a3a77738f9f7c085cd285b4c3662d8d0e74628	
State going to Doub again
StateCounter(0)=>           0	
i=>         18	rule=> double	output	State=> 2	StateCounter=>           0	
status from alu is ready		
i=>         18	rule=> double reg store	State=> 2	StateCounter=>           0	
	C0=> 00000000000000000000000000000000000000000000000000000000000	
	C1=> 193c0ccd3625335211a1a670046f0626656a5788db055e1cb4c450a7411	
StateCounter(1)=>           1	
i=>         18	rule=> double	output	State=> 2	StateCounter=>           1	
status from alu is ready		
i=>         18	rule=> double reg store	State=> 2	StateCounter=>           1	
	C0=> 1ef050505ef84827eeb78d4cadcb2c18825645369c303e7f2c8b55310c7	
	C1=> 00000000000000000000000000000000000000000000000000000000000	
i=>         18	rule=> double	output	State=> 2	StateCounter=>           2	
status from alu is ready		
i=>         18	rule=> double reg store	State=> 2	StateCounter=>           2	
	C0=> 0c9e669053767d5cb5bb57ed830f181c3108b7d58ca5c9e72e6cc56d04a	
	C1=> 15a26a5d65534e0ea41af19d87601e3a5462e05d57a097fb9aa895ca45b	
i=>         18	rule=> double	output	State=> 2	StateCounter=>           3	
status from alu is ready		
i=>         18	rule=> double reg store	State=> 2	StateCounter=>           3	
	C0=> 00000000000000000000000000000000000000000000000000000000000	
	C1=> 0871bd279efdf737007a2a3a77738f9f7c085cd285b4c3662d8d0e74628	
State going to Doub again
StateCounter(0)=>           0	
i=>         19	rule=> double	output	State=> 2	StateCounter=>           0	
status from alu is ready		
i=>         19	rule=> double reg store	State=> 2	StateCounter=>           0	
	C0=> 00000000000000000000000000000000000000000000000000000000000	
	C1=> 15a26a5d65534e0ea41af19d87601e3a5462e05d57a097fb9aa895ca45b	
StateCounter(1)=>           1	
i=>         19	rule=> double	output	State=> 2	StateCounter=>           1	
status from alu is ready		
i=>         19	rule=> double reg store	State=> 2	StateCounter=>           1	
	C0=> 1ef050505ef84827eeb78d4cadcb2c18825645369c303e7f2c8b55310c7	
	C1=> 00000000000000000000000000000000000000000000000000000000000	
i=>         19	rule=> double	output	State=> 2	StateCounter=>           2	
status from alu is ready		
i=>         19	rule=> double reg store	State=> 2	StateCounter=>           2	
	C0=> 1e7433b22a7f9935f35d911dd09a91315a377e138b5f0c21d3366aea6d8	
	C1=> 0bd659ef4f2cd73b5747608057fa8f0b0e559e4edcff9bda499eff20283	
i=>         19	rule=> double	output	State=> 2	StateCounter=>           3	
status from alu is ready		
i=>         19	rule=> double reg store	State=> 2	StateCounter=>           3	
	C0=> 00000000000000000000000000000000000000000000000000000000000	
	C1=> 0871bd279efdf737007a2a3a77738f9f7c085cd285b4c3662d8d0e74628	
State going to Doub again
StateCounter(0)=>           0	
i=>         20	rule=> double	output	State=> 2	StateCounter=>           0	
status from alu is ready		
i=>         20	rule=> double reg store	State=> 2	StateCounter=>           0	
	C0=> 00000000000000000000000000000000000000000000000000000000000	
	C1=> 0bd659ef4f2cd73b5747608057fa8f0b0e559e4edcff9bda499eff20283	
StateCounter(1)=>           1	
i=>         20	rule=> double	output	State=> 2	StateCounter=>           1	
status from alu is ready		
i=>         20	rule=> double reg store	State=> 2	StateCounter=>           1	
	C0=> 1ef050505ef84827eeb78d4cadcb2c18825645369c303e7f2c8b55310c7	
	C1=> 00000000000000000000000000000000000000000000000000000000000	
i=>         20	rule=> double	output	State=> 2	StateCounter=>           2	
status from alu is ready		
i=>         20	rule=> double reg store	State=> 2	StateCounter=>           2	
	C0=> 0d59e615db62c7d386ceec17260073b8649792b7ad0b8340fd89b08ca25	
	C1=> 068fbffa944e10e8d1898c9771fafcb36ac20cf971f4189ab4174fac8a6	
i=>         20	rule=> double	output	State=> 2	StateCounter=>           3	
status from alu is ready		
i=>         20	rule=> double reg store	State=> 2	StateCounter=>           3	
	C0=> 00000000000000000000000000000000000000000000000000000000000	
	C1=> 0871bd279efdf737007a2a3a77738f9f7c085cd285b4c3662d8d0e74628	
State going to Ad
i=>         20	rule=> addition output	State=> 3	StateCounter=>           0	
status from alu is ready		
i=>         20	rule=> add reg store	State=> 3	StateCounter=>           0	
	C0=> 00000000000000000000000000000000000000000000000000000000000	
	C1=> 1006a08a41903350678e58528bebf8a0beff867a7ca36716f7e01f81052	
i=>         20	rule=> addition output	State=> 3	StateCounter=>           1	
status from alu is ready		
i=>         20	rule=> add reg store	State=> 3	StateCounter=>           1	
	C0=> 12f8b5b6bf6776415b36c79d5c8ee95e02ef7a038b84dce713992c35d93	
	C1=> 1984697a540b309b35e96565a505d334e37e017a25dddb46cf22af03a9e	
i=>         20	rule=> addition output	State=> 3	StateCounter=>           2	
status from alu is ready		
i=>         20	rule=> add reg store	State=> 3	StateCounter=>           2	
	C0=> 00000000000000000000000000000000000000000000000000000000000	
	C1=> 12f8b5b6bf6776415b36c79d5c8ee95e02ef7a038b84dce713992c35d93	
i=>         20	rule=> addition output	State=> 3	StateCounter=>           3	
status from alu is ready		
i=>         20	rule=> add reg store	State=> 3	StateCounter=>           3	
	C0=> 00000000000000000000000000000000000000000000000000000000000	
	C1=> 12f8b5b6bf6776415b36c79d5c8ee95e02ef7a038b84dce713992c35d93	
i=>         20	rule=> addition output	State=> 3	StateCounter=>           4	
status from alu is ready		
i=>         20	rule=> add reg store	State=> 3	StateCounter=>           4	
	C0=> 00000000000000000000000000000000000000000000000000000000000	
	C1=> 00000000000000000000000000000000000000000000000000000000000	
i=>         20	rule=> addition output	State=> 3	StateCounter=>           5	
status from alu is ready		
i=>         20	rule=> add reg store	State=> 3	StateCounter=>           5	
	C0=> 00000000000000000000000000000000000000000000000000000000000	
	C1=> 00000000000000000000000000000000000000000000000000000000000	
i=>         20	rule=> addition output	State=> 3	StateCounter=>           6	
status from alu is ready		
i=>         20	rule=> add reg store	State=> 3	StateCounter=>           6	
	C0=> 00000000000000000000000000000000000000000000000000000000000	
	C1=> 1006a08a41903350678e58528bebf8a0beff867a7ca36716f7e01f81052	
i=>         20	rule=> addition output	State=> 3	StateCounter=>           7	
status from alu is ready		
i=>         20	rule=> add reg store	State=> 3	StateCounter=>           7	
	C0=> 00000000000000000000000000000000000000000000000000000000000	
	C1=> 00000000000000000000000000000000000000000000000000000000000	
StateCounter(0)=>           0	
i=>         21	rule=> double	output	State=> 2	StateCounter=>           0	
status from alu is ready		
i=>         21	rule=> double reg store	State=> 2	StateCounter=>           0	
	C0=> 00000000000000000000000000000000000000000000000000000000000	
	C1=> 00000000000000000000000000000000000000000000000000000000000	
StateCounter(1)=>           1	
i=>         21	rule=> double	output	State=> 2	StateCounter=>           1	
status from alu is ready		
i=>         21	rule=> double reg store	State=> 2	StateCounter=>           1	
	C0=> 1ef050505ef84827eeb78d4cadcb2c18825645369c303e7f2c8b55310c7	
	C1=> 00000000000000000000000000000000000000000000000000000000000	
i=>         21	rule=> double	output	State=> 2	StateCounter=>           2	
status from alu is ready		
i=>         21	rule=> double reg store	State=> 2	StateCounter=>           2	
	C0=> 001eae08c993638b1251464ab51a2c35cdbfdc3013c9839222db822c369	
	C1=> 001eae08c993638b1251464ab51a2c35cdbfdc3013c9839222db822c369	
i=>         21	rule=> double	output	State=> 2	StateCounter=>           3	
status from alu is ready		
i=>         21	rule=> double reg store	State=> 2	StateCounter=>           3	
	C0=> 00000000000000000000000000000000000000000000000000000000000	
	C1=> 0871bd279efdf737007a2a3a77738f9f7c085cd285b4c3662d8d0e74628	
State going to Doub again
StateCounter(0)=>           0	
i=>         22	rule=> double	output	State=> 2	StateCounter=>           0	
status from alu is ready		
i=>         22	rule=> double reg store	State=> 2	StateCounter=>           0	
	C0=> 00000000000000000000000000000000000000000000000000000000000	
	C1=> 001eae08c993638b1251464ab51a2c35cdbfdc3013c9839222db822c369	
StateCounter(1)=>           1	
i=>         22	rule=> double	output	State=> 2	StateCounter=>           1	
status from alu is ready		
i=>         22	rule=> double reg store	State=> 2	StateCounter=>           1	
	C0=> 1ef050505ef84827eeb78d4cadcb2c18825645369c303e7f2c8b55310c7	
	C1=> 00000000000000000000000000000000000000000000000000000000000	
i=>         22	rule=> double	output	State=> 2	StateCounter=>           2	
status from alu is ready		
i=>         22	rule=> double reg store	State=> 2	StateCounter=>           2	
	C0=> 18ec21b708f3fd3a4fa7f3ee61925f2220bcd9d22d733c50128e85c6ae6	
	C1=> 18f28fbfc1609eb15df6b5a4d4887317ed0305e23ebabfc2305507ea98f	
i=>         22	rule=> double	output	State=> 2	StateCounter=>           3	
status from alu is ready		
i=>         22	rule=> double reg store	State=> 2	StateCounter=>           3	
	C0=> 00000000000000000000000000000000000000000000000000000000000	
	C1=> 0871bd279efdf737007a2a3a77738f9f7c085cd285b4c3662d8d0e74628	
State going to Doub again
StateCounter(0)=>           0	
i=>         23	rule=> double	output	State=> 2	StateCounter=>           0	
status from alu is ready		
i=>         23	rule=> double reg store	State=> 2	StateCounter=>           0	
	C0=> 00000000000000000000000000000000000000000000000000000000000	
	C1=> 18f28fbfc1609eb15df6b5a4d4887317ed0305e23ebabfc2305507ea98f	
StateCounter(1)=>           1	
i=>         23	rule=> double	output	State=> 2	StateCounter=>           1	
status from alu is ready		
i=>         23	rule=> double reg store	State=> 2	StateCounter=>           1	
	C0=> 1ef050505ef84827eeb78d4cadcb2c18825645369c303e7f2c8b55310c7	
	C1=> 00000000000000000000000000000000000000000000000000000000000	
i=>         23	rule=> double	output	State=> 2	StateCounter=>           2	
status from alu is ready		
i=>         23	rule=> double reg store	State=> 2	StateCounter=>           2	
	C0=> 0a15ca5b78835de8d8348adbb230d6ddca0de2a63fd72911ea8135e4a98	
	C1=> 12e745e4b9e3c35985c23f7f66b8a5ca270ee744016d96d3dad4320e317	
i=>         23	rule=> double	output	State=> 2	StateCounter=>           3	
status from alu is ready		
i=>         23	rule=> double reg store	State=> 2	StateCounter=>           3	
	C0=> 00000000000000000000000000000000000000000000000000000000000	
	C1=> 0871bd279efdf737007a2a3a77738f9f7c085cd285b4c3662d8d0e74628	
State going to Doub again
StateCounter(0)=>           0	
i=>         24	rule=> double	output	State=> 2	StateCounter=>           0	
status from alu is ready		
i=>         24	rule=> double reg store	State=> 2	StateCounter=>           0	
	C0=> 00000000000000000000000000000000000000000000000000000000000	
	C1=> 12e745e4b9e3c35985c23f7f66b8a5ca270ee744016d96d3dad4320e317	
StateCounter(1)=>           1	
i=>         24	rule=> double	output	State=> 2	StateCounter=>           1	
status from alu is ready		
i=>         24	rule=> double reg store	State=> 2	StateCounter=>           1	
	C0=> 1ef050505ef84827eeb78d4cadcb2c18825645369c303e7f2c8b55310c7	
	C1=> 00000000000000000000000000000000000000000000000000000000000	
i=>         24	rule=> double	output	State=> 2	StateCounter=>           2	
status from alu is ready		
i=>         24	rule=> double reg store	State=> 2	StateCounter=>           2	
	C0=> 03ef69529811415f754d9850a497981435479e7898c78b809272cef953d	
	C1=> 11082cb621f28206f08fa72fc22f3dde1249793c99aa1d5348a6fcf762a	
i=>         24	rule=> double	output	State=> 2	StateCounter=>           3	
status from alu is ready		
i=>         24	rule=> double reg store	State=> 2	StateCounter=>           3	
	C0=> 00000000000000000000000000000000000000000000000000000000000	
	C1=> 0871bd279efdf737007a2a3a77738f9f7c085cd285b4c3662d8d0e74628	
State going to Doub again
StateCounter(0)=>           0	
i=>         25	rule=> double	output	State=> 2	StateCounter=>           0	
status from alu is ready		
i=>         25	rule=> double reg store	State=> 2	StateCounter=>           0	
	C0=> 00000000000000000000000000000000000000000000000000000000000	
	C1=> 11082cb621f28206f08fa72fc22f3dde1249793c99aa1d5348a6fcf762a	
StateCounter(1)=>           1	
i=>         25	rule=> double	output	State=> 2	StateCounter=>           1	
status from alu is ready		
i=>         25	rule=> double reg store	State=> 2	StateCounter=>           1	
	C0=> 1ef050505ef84827eeb78d4cadcb2c18825645369c303e7f2c8b55310c7	
	C1=> 00000000000000000000000000000000000000000000000000000000000	
i=>         25	rule=> double	output	State=> 2	StateCounter=>           2	
status from alu is ready		
i=>         25	rule=> double reg store	State=> 2	StateCounter=>           2	
	C0=> 0834207b17d7b154e12e015fc6403bf877232eb442af434ffc62ac5023b	
	C1=> 193c0ccd3625335211a1a670046f0626656a5788db055e1cb4c450a7411	
i=>         25	rule=> double	output	State=> 2	StateCounter=>           3	
status from alu is ready		
i=>         25	rule=> double reg store	State=> 2	StateCounter=>           3	
	C0=> 00000000000000000000000000000000000000000000000000000000000	
	C1=> 0871bd279efdf737007a2a3a77738f9f7c085cd285b4c3662d8d0e74628	
State going to Doub again
StateCounter(0)=>           0	
i=>         26	rule=> double	output	State=> 2	StateCounter=>           0	
status from alu is ready		
i=>         26	rule=> double reg store	State=> 2	StateCounter=>           0	
	C0=> 00000000000000000000000000000000000000000000000000000000000	
	C1=> 193c0ccd3625335211a1a670046f0626656a5788db055e1cb4c450a7411	
StateCounter(1)=>           1	
i=>         26	rule=> double	output	State=> 2	StateCounter=>           1	
status from alu is ready		
i=>         26	rule=> double reg store	State=> 2	StateCounter=>           1	
	C0=> 1ef050505ef84827eeb78d4cadcb2c18825645369c303e7f2c8b55310c7	
	C1=> 00000000000000000000000000000000000000000000000000000000000	
i=>         26	rule=> double	output	State=> 2	StateCounter=>           2	
status from alu is ready		
i=>         26	rule=> double reg store	State=> 2	StateCounter=>           2	
	C0=> 0c9e669053767d5cb5bb57ed830f181c3108b7d58ca5c9e72e6cc56d04a	
	C1=> 15a26a5d65534e0ea41af19d87601e3a5462e05d57a097fb9aa895ca45b	
i=>         26	rule=> double	output	State=> 2	StateCounter=>           3	
status from alu is ready		
i=>         26	rule=> double reg store	State=> 2	StateCounter=>           3	
	C0=> 00000000000000000000000000000000000000000000000000000000000	
	C1=> 0871bd279efdf737007a2a3a77738f9f7c085cd285b4c3662d8d0e74628	
State going to Doub again
StateCounter(0)=>           0	
i=>         27	rule=> double	output	State=> 2	StateCounter=>           0	
status from alu is ready		
i=>         27	rule=> double reg store	State=> 2	StateCounter=>           0	
	C0=> 00000000000000000000000000000000000000000000000000000000000	
	C1=> 15a26a5d65534e0ea41af19d87601e3a5462e05d57a097fb9aa895ca45b	
StateCounter(1)=>           1	
i=>         27	rule=> double	output	State=> 2	StateCounter=>           1	
status from alu is ready		
i=>         27	rule=> double reg store	State=> 2	StateCounter=>           1	
	C0=> 1ef050505ef84827eeb78d4cadcb2c18825645369c303e7f2c8b55310c7	
	C1=> 00000000000000000000000000000000000000000000000000000000000	
i=>         27	rule=> double	output	State=> 2	StateCounter=>           2	
status from alu is ready		
i=>         27	rule=> double reg store	State=> 2	StateCounter=>           2	
	C0=> 1e7433b22a7f9935f35d911dd09a91315a377e138b5f0c21d3366aea6d8	
	C1=> 0bd659ef4f2cd73b5747608057fa8f0b0e559e4edcff9bda499eff20283	
i=>         27	rule=> double	output	State=> 2	StateCounter=>           3	
status from alu is ready		
i=>         27	rule=> double reg store	State=> 2	StateCounter=>           3	
	C0=> 00000000000000000000000000000000000000000000000000000000000	
	C1=> 0871bd279efdf737007a2a3a77738f9f7c085cd285b4c3662d8d0e74628	
State going to Doub again
StateCounter(0)=>           0	
i=>         28	rule=> double	output	State=> 2	StateCounter=>           0	
status from alu is ready		
i=>         28	rule=> double reg store	State=> 2	StateCounter=>           0	
	C0=> 00000000000000000000000000000000000000000000000000000000000	
	C1=> 0bd659ef4f2cd73b5747608057fa8f0b0e559e4edcff9bda499eff20283	
StateCounter(1)=>           1	
i=>         28	rule=> double	output	State=> 2	StateCounter=>           1	
status from alu is ready		
i=>         28	rule=> double reg store	State=> 2	StateCounter=>           1	
	C0=> 1ef050505ef84827eeb78d4cadcb2c18825645369c303e7f2c8b55310c7	
	C1=> 00000000000000000000000000000000000000000000000000000000000	
i=>         28	rule=> double	output	State=> 2	StateCounter=>           2	
status from alu is ready		
i=>         28	rule=> double reg store	State=> 2	StateCounter=>           2	
	C0=> 0d59e615db62c7d386ceec17260073b8649792b7ad0b8340fd89b08ca25	
	C1=> 068fbffa944e10e8d1898c9771fafcb36ac20cf971f4189ab4174fac8a6	
i=>         28	rule=> double	output	State=> 2	StateCounter=>           3	
status from alu is ready		
i=>         28	rule=> double reg store	State=> 2	StateCounter=>           3	
	C0=> 00000000000000000000000000000000000000000000000000000000000	
	C1=> 0871bd279efdf737007a2a3a77738f9f7c085cd285b4c3662d8d0e74628	
State going to Ad
i=>         28	rule=> addition output	State=> 3	StateCounter=>           0	
status from alu is ready		
i=>         28	rule=> add reg store	State=> 3	StateCounter=>           0	
	C0=> 00000000000000000000000000000000000000000000000000000000000	
	C1=> 1006a08a41903350678e58528bebf8a0beff867a7ca36716f7e01f81052	
i=>         28	rule=> addition output	State=> 3	StateCounter=>           1	
status from alu is ready		
i=>         28	rule=> add reg store	State=> 3	StateCounter=>           1	
	C0=> 12f8b5b6bf6776415b36c79d5c8ee95e02ef7a038b84dce713992c35d93	
	C1=> 1984697a540b309b35e96565a505d334e37e017a25dddb46cf22af03a9e	
i=>         28	rule=> addition output	State=> 3	StateCounter=>           2	
status from alu is ready		
i=>         28	rule=> add reg store	State=> 3	StateCounter=>           2	
	C0=> 00000000000000000000000000000000000000000000000000000000000	
	C1=> 12f8b5b6bf6776415b36c79d5c8ee95e02ef7a038b84dce713992c35d93	
i=>         28	rule=> addition output	State=> 3	StateCounter=>           3	
status from alu is ready		
i=>         28	rule=> add reg store	State=> 3	StateCounter=>           3	
	C0=> 00000000000000000000000000000000000000000000000000000000000	
	C1=> 12f8b5b6bf6776415b36c79d5c8ee95e02ef7a038b84dce713992c35d93	
i=>         28	rule=> addition output	State=> 3	StateCounter=>           4	
status from alu is ready		
i=>         28	rule=> add reg store	State=> 3	StateCounter=>           4	
	C0=> 00000000000000000000000000000000000000000000000000000000000	
	C1=> 00000000000000000000000000000000000000000000000000000000000	
i=>         28	rule=> addition output	State=> 3	StateCounter=>           5	
status from alu is ready		
i=>         28	rule=> add reg store	State=> 3	StateCounter=>           5	
	C0=> 00000000000000000000000000000000000000000000000000000000000	
	C1=> 00000000000000000000000000000000000000000000000000000000000	
i=>         28	rule=> addition output	State=> 3	StateCounter=>           6	
status from alu is ready		
i=>         28	rule=> add reg store	State=> 3	StateCounter=>           6	
	C0=> 00000000000000000000000000000000000000000000000000000000000	
	C1=> 1006a08a41903350678e58528bebf8a0beff867a7ca36716f7e01f81052	
i=>         28	rule=> addition output	State=> 3	StateCounter=>           7	
status from alu is ready		
i=>         28	rule=> add reg store	State=> 3	StateCounter=>           7	
	C0=> 00000000000000000000000000000000000000000000000000000000000	
	C1=> 00000000000000000000000000000000000000000000000000000000000	
StateCounter(0)=>           0	
i=>         29	rule=> double	output	State=> 2	StateCounter=>           0	
status from alu is ready		
i=>         29	rule=> double reg store	State=> 2	StateCounter=>           0	
	C0=> 00000000000000000000000000000000000000000000000000000000000	
	C1=> 00000000000000000000000000000000000000000000000000000000000	
StateCounter(1)=>           1	
i=>         29	rule=> double	output	State=> 2	StateCounter=>           1	
status from alu is ready		
i=>         29	rule=> double reg store	State=> 2	StateCounter=>           1	
	C0=> 1ef050505ef84827eeb78d4cadcb2c18825645369c303e7f2c8b55310c7	
	C1=> 00000000000000000000000000000000000000000000000000000000000	
i=>         29	rule=> double	output	State=> 2	StateCounter=>           2	
status from alu is ready		
i=>         29	rule=> double reg store	State=> 2	StateCounter=>           2	
	C0=> 001eae08c993638b1251464ab51a2c35cdbfdc3013c9839222db822c369	
	C1=> 001eae08c993638b1251464ab51a2c35cdbfdc3013c9839222db822c369	
i=>         29	rule=> double	output	State=> 2	StateCounter=>           3	
status from alu is ready		
i=>         29	rule=> double reg store	State=> 2	StateCounter=>           3	
	C0=> 00000000000000000000000000000000000000000000000000000000000	
	C1=> 0871bd279efdf737007a2a3a77738f9f7c085cd285b4c3662d8d0e74628	
State going to Doub again
StateCounter(0)=>           0	
i=>         30	rule=> double	output	State=> 2	StateCounter=>           0	
status from alu is ready		
i=>         30	rule=> double reg store	State=> 2	StateCounter=>           0	
	C0=> 00000000000000000000000000000000000000000000000000000000000	
	C1=> 001eae08c993638b1251464ab51a2c35cdbfdc3013c9839222db822c369	
StateCounter(1)=>           1	
i=>         30	rule=> double	output	State=> 2	StateCounter=>           1	
status from alu is ready		
i=>         30	rule=> double reg store	State=> 2	StateCounter=>           1	
	C0=> 1ef050505ef84827eeb78d4cadcb2c18825645369c303e7f2c8b55310c7	
	C1=> 00000000000000000000000000000000000000000000000000000000000	
i=>         30	rule=> double	output	State=> 2	StateCounter=>           2	
status from alu is ready		
i=>         30	rule=> double reg store	State=> 2	StateCounter=>           2	
	C0=> 18ec21b708f3fd3a4fa7f3ee61925f2220bcd9d22d733c50128e85c6ae6	
	C1=> 18f28fbfc1609eb15df6b5a4d4887317ed0305e23ebabfc2305507ea98f	
i=>         30	rule=> double	output	State=> 2	StateCounter=>           3	
status from alu is ready		
i=>         30	rule=> double reg store	State=> 2	StateCounter=>           3	
	C0=> 00000000000000000000000000000000000000000000000000000000000	
	C1=> 0871bd279efdf737007a2a3a77738f9f7c085cd285b4c3662d8d0e74628	
State going to Doub again
StateCounter(0)=>           0	
i=>         31	rule=> double	output	State=> 2	StateCounter=>           0	
status from alu is ready		
i=>         31	rule=> double reg store	State=> 2	StateCounter=>           0	
	C0=> 00000000000000000000000000000000000000000000000000000000000	
	C1=> 18f28fbfc1609eb15df6b5a4d4887317ed0305e23ebabfc2305507ea98f	
StateCounter(1)=>           1	
i=>         31	rule=> double	output	State=> 2	StateCounter=>           1	
status from alu is ready		
i=>         31	rule=> double reg store	State=> 2	StateCounter=>           1	
	C0=> 1ef050505ef84827eeb78d4cadcb2c18825645369c303e7f2c8b55310c7	
	C1=> 00000000000000000000000000000000000000000000000000000000000	
i=>         31	rule=> double	output	State=> 2	StateCounter=>           2	
status from alu is ready		
i=>         31	rule=> double reg store	State=> 2	StateCounter=>           2	
	C0=> 0a15ca5b78835de8d8348adbb230d6ddca0de2a63fd72911ea8135e4a98	
	C1=> 12e745e4b9e3c35985c23f7f66b8a5ca270ee744016d96d3dad4320e317	
i=>         31	rule=> double	output	State=> 2	StateCounter=>           3	
status from alu is ready		
i=>         31	rule=> double reg store	State=> 2	StateCounter=>           3	
	C0=> 00000000000000000000000000000000000000000000000000000000000	
	C1=> 0871bd279efdf737007a2a3a77738f9f7c085cd285b4c3662d8d0e74628	
State going to Con
rule=> inverse output		State=> 4	StateCounter=>           0	
status from alu is ready		
rule=> inverse reg store	State=> 4	StateCounter=>           0	
	C0=> 00000000000000000000000000000000000000000000000000000000000	
	C1=> 00000000000000000000000000000000000000000000000000000000000	
rule=> inverse output		State=> 4	StateCounter=>           1	
status from alu is ready		
rule=> inverse reg store	State=> 4	StateCounter=>           1	
	C0=> 00000000000000000000000000000000000000000000000000000000000	
	C1=> 00000000000000000000000000000000000000000000000000000000000	
rule=> inverse output		State=> 4	StateCounter=>           2	
status from alu is ready		
rule=> inverse reg store	State=> 4	StateCounter=>           2	
	C0=> 00000000000000000000000000000000000000000000000000000000000	
	C1=> 00000000000000000000000000000000000000000000000000000000000	
rule=> inverse output		State=> 4	StateCounter=>           3	
status from alu is ready		
rule=> inverse reg store	State=> 4	StateCounter=>           3	
	C0=> 00000000000000000000000000000000000000000000000000000000000	
	C1=> 00000000000000000000000000000000000000000000000000000000000	
rule=> inverse output		State=> 4	StateCounter=>           4	
status from alu is ready		
rule=> inverse reg store	State=> 4	StateCounter=>           4	
	C0=> 00000000000000000000000000000000000000000000000000000000000	
	C1=> 00000000000000000000000000000000000000000000000000000000000	
rule=> inverse output		State=> 4	StateCounter=>           5	
status from alu is ready		
rule=> inverse reg store	State=> 4	StateCounter=>           5	
	C0=> 00000000000000000000000000000000000000000000000000000000000	
	C1=> 00000000000000000000000000000000000000000000000000000000000	
rule=> inverse output		State=> 4	StateCounter=>           6	
status from alu is ready		
rule=> inverse reg store	State=> 4	StateCounter=>           6	
	C0=> 00000000000000000000000000000000000000000000000000000000000	
	C1=> 00000000000000000000000000000000000000000000000000000000000	
rule=> inverse output		State=> 4	StateCounter=>           7	
status from alu is ready		
rule=> inverse reg store	State=> 4	StateCounter=>           7	
	C0=> 00000000000000000000000000000000000000000000000000000000000	
	C1=> 00000000000000000000000000000000000000000000000000000000000	
rule=> inverse output		State=> 4	StateCounter=>           8	
status from alu is ready		
rule=> inverse reg store	State=> 4	StateCounter=>           8	
	C0=> 00000000000000000000000000000000000000000000000000000000000	
	C1=> 00000000000000000000000000000000000000000000000000000000000	
rule=> inverse output		State=> 4	StateCounter=>           9	
status from alu is ready		
rule=> inverse reg store	State=> 4	StateCounter=>           9	
	C0=> 00000000000000000000000000000000000000000000000000000000000	
	C1=> 00000000000000000000000000000000000000000000000000000000000	
rule=> inverse output		State=> 4	StateCounter=>          10	
status from alu is ready		
rule=> inverse reg store	State=> 4	StateCounter=>          10	
	C0=> 00000000000000000000000000000000000000000000000000000000000	
	C1=> 00000000000000000000000000000000000000000000000000000000000	
rule=> inverse output		State=> 4	StateCounter=>          11	
status from alu is ready		
rule=> inverse reg store	State=> 4	StateCounter=>          11	
	C0=> 00000000000000000000000000000000000000000000000000000000000	
	C1=> 00000000000000000000000000000000000000000000000000000000000	
rule=> inverse output		State=> 4	StateCounter=>          12	
status from alu is ready		
rule=> inverse reg store	State=> 4	StateCounter=>          12	
	C0=> 00000000000000000000000000000000000000000000000000000000000	
	C1=> 00000000000000000000000000000000000000000000000000000000000	
rule=> inverse output		State=> 4	StateCounter=>          13	
status from alu is ready		
rule=> inverse reg store	State=> 4	StateCounter=>          13	
	C0=> 00000000000000000000000000000000000000000000000000000000000	
	C1=> 00000000000000000000000000000000000000000000000000000000000	
rule=> inverse output		State=> 4	StateCounter=>          14	
status from alu is ready		
rule=> inverse reg store	State=> 4	StateCounter=>          14	
	C0=> 00000000000000000000000000000000000000000000000000000000000	
	C1=> 00000000000000000000000000000000000000000000000000000000000	
rule=> inverse output		State=> 4	StateCounter=>          15	
status from alu is ready		
rule=> inverse reg store	State=> 4	StateCounter=>          15	
	C0=> 00000000000000000000000000000000000000000000000000000000000	
	C1=> 00000000000000000000000000000000000000000000000000000000000	
rule=> inverse output		State=> 4	StateCounter=>          16	
status from alu is ready		
rule=> inverse reg store	State=> 4	StateCounter=>          16	
	C0=> 00000000000000000000000000000000000000000000000000000000000	
	C1=> 00000000000000000000000000000000000000000000000000000000000	
rule=> inverse output		State=> 4	StateCounter=>          17	
status from alu is ready		
rule=> inverse reg store	State=> 4	StateCounter=>          17	
	C0=> 00000000000000000000000000000000000000000000000000000000000	
	C1=> 00000000000000000000000000000000000000000000000000000000000	
rule=> inverse output		State=> 4	StateCounter=>          18	
status from alu is ready		
rule=> inverse reg store	State=> 4	StateCounter=>          18	
	C0=> 00000000000000000000000000000000000000000000000000000000000	
	C1=> 00000000000000000000000000000000000000000000000000000000000	
rule=> inverse output		State=> 4	StateCounter=>          19	
status from alu is ready		
rule=> inverse reg store	State=> 4	StateCounter=>          19	
	C0=> 00000000000000000000000000000000000000000000000000000000000	
	C1=> 00000000000000000000000000000000000000000000000000000000000	
rule=> inverse output		State=> 4	StateCounter=>          20	
status from alu is ready		
rule=> inverse reg store	State=> 4	StateCounter=>          20	
	C0=> 00000000000000000000000000000000000000000000000000000000000	
	C1=> 00000000000000000000000000000000000000000000000000000000000	
rule=> inverse output		State=> 4	StateCounter=>          21	
status from alu is ready		
rule=> inverse reg store	State=> 4	StateCounter=>          21	
	C0=> 00000000000000000000000000000000000000000000000000000000000	
	C1=> 12e745e4b9e3c35985c23f7f66b8a5ca270ee744016d96d3dad4320e317	
rule=> inverse output		State=> 4	StateCounter=>          22	
status from alu is ready		
rule=> inverse reg store	State=> 4	StateCounter=>          22	
	C0=> 00000000000000000000000000000000000000000000000000000000000	
	C1=> 00000000000000000000000000000000000000000000000000000000000	
Computation is finished 
result X=                                                                       0
result X=                                                                       0
Computation is finished 
Bluesim simulation finished
